[
    {
        "_id": "657271210388114bf9e614bc",
        "sensorId": "light",
        "value": [
            {
                "timestamp": "2023-12-29T14:28:24.164Z",
                "light": 11
            },
            {
                "timestamp": "2023-12-29T14:28:54.352Z",
                "light": 11
            },
            {
                "timestamp": "2023-12-29T14:29:24.517Z",
                "light": 11
            },
            {
                "timestamp": "2023-12-29T14:29:54.434Z",
                "light": 11
            },
            {
                "timestamp": "2023-12-29T14:30:24.401Z",
                "light": 11
            },
            {
                "timestamp": "2023-12-29T14:30:54.495Z",
                "light": 11
            },
            {
                "timestamp": "2023-12-29T14:31:24.242Z",
                "light": 11
            },
            {
                "timestamp": "2023-12-29T14:31:54.453Z",
                "light": 11
            },
            {
                "timestamp": "2023-12-29T14:32:24.293Z",
                "light": 11
            },
            {
                "timestamp": "2023-12-29T14:32:54.237Z",
                "light": 11
            },
            {
                "timestamp": "2023-12-29T14:33:24.330Z",
                "light": 11
            },
            {
                "timestamp": "2023-12-29T14:33:54.387Z",
                "light": 11
            },
            {
                "timestamp": "2023-12-29T14:34:24.609Z",
                "light": 11
            },
            {
                "timestamp": "2023-12-29T14:34:54.303Z",
                "light": 11
            },
            {
                "timestamp": "2023-12-29T14:35:24.374Z",
                "light": 11
            },
            {
                "timestamp": "2023-12-29T14:35:54.412Z",
                "light": 11
            },
            {
                "timestamp": "2023-12-29T14:36:24.552Z",
                "light": 11
            },
            {
                "timestamp": "2023-12-29T14:36:54.468Z",
                "light": 11
            },
            {
                "timestamp": "2023-12-29T14:37:23.771Z",
                "light": 13
            },
            {
                "timestamp": "2023-12-29T14:37:24.361Z",
                "light": 11
            },
            {
                "timestamp": "2023-12-29T14:37:54.411Z",
                "light": 11
            },
            {
                "timestamp": "2023-12-29T14:38:24.384Z",
                "light": 11
            },
            {
                "timestamp": "2023-12-29T14:38:54.369Z",
                "light": 11
            },
            {
                "timestamp": "2023-12-29T14:39:57.130Z",
                "light": 10
            },
            {
                "timestamp": "2023-12-29T14:40:55.476Z",
                "light": 11
            },
            {
                "timestamp": "2023-12-29T14:41:25.383Z",
                "light": 10
            },
            {
                "timestamp": "2023-12-29T14:41:55.205Z",
                "light": 11
            },
            {
                "timestamp": "2023-12-29T14:42:25.201Z",
                "light": 12
            },
            {
                "timestamp": "2023-12-29T14:42:55.176Z",
                "light": 10
            },
            {
                "timestamp": "2023-12-29T14:43:25.402Z",
                "light": 11
            },
            {
                "timestamp": "2023-12-29T14:43:55.192Z",
                "light": 12
            },
            {
                "timestamp": "2023-12-29T14:44:25.511Z",
                "light": 11
            },
            {
                "timestamp": "2023-12-29T14:44:55.444Z",
                "light": 12
            },
            {
                "timestamp": "2023-12-29T14:45:25.281Z",
                "light": 11
            },
            {
                "timestamp": "2023-12-29T14:45:55.469Z",
                "light": 11
            },
            {
                "timestamp": "2023-12-29T14:46:25.328Z",
                "light": 11
            },
            {
                "timestamp": "2023-12-29T14:46:55.767Z",
                "light": 11
            },
            {
                "timestamp": "2023-12-29T14:47:25.290Z",
                "light": 11
            },
            {
                "timestamp": "2023-12-29T14:47:46.753Z",
                "light": 10
            },
            {
                "timestamp": "2023-12-29T14:47:55.461Z",
                "light": 11
            },
            {
                "timestamp": "2023-12-29T14:48:25.378Z",
                "light": 11
            },
            {
                "timestamp": "2023-12-29T14:48:55.368Z",
                "light": 11
            },
            {
                "timestamp": "2023-12-29T14:49:25.361Z",
                "light": 10
            },
            {
                "timestamp": "2023-12-29T14:49:55.354Z",
                "light": 12
            },
            {
                "timestamp": "2023-12-29T14:50:25.366Z",
                "light": 10
            },
            {
                "timestamp": "2023-12-29T14:50:55.541Z",
                "light": 11
            },
            {
                "timestamp": "2023-12-29T14:51:25.360Z",
                "light": 12
            },
            {
                "timestamp": "2023-12-29T14:51:55.829Z",
                "light": 11
            },
            {
                "timestamp": "2023-12-29T14:52:25.414Z",
                "light": 12
            },
            {
                "timestamp": "2023-12-29T14:52:55.413Z",
                "light": 11
            },
            {
                "timestamp": "2023-12-29T14:53:25.605Z",
                "light": 10
            },
            {
                "timestamp": "2023-12-29T14:53:55.638Z",
                "light": 11
            },
            {
                "timestamp": "2023-12-29T14:54:25.452Z",
                "light": 12
            },
            {
                "timestamp": "2023-12-29T14:54:55.465Z",
                "light": 10
            },
            {
                "timestamp": "2023-12-29T14:55:25.674Z",
                "light": 12
            },
            {
                "timestamp": "2023-12-29T14:55:55.479Z",
                "light": 12
            },
            {
                "timestamp": "2023-12-29T14:56:25.615Z",
                "light": 10
            },
            {
                "timestamp": "2023-12-29T14:56:55.486Z",
                "light": 10
            },
            {
                "timestamp": "2023-12-29T14:57:25.477Z",
                "light": 11
            },
            {
                "timestamp": "2023-12-29T14:57:55.504Z",
                "light": 10
            },
            {
                "timestamp": "2023-12-29T14:58:25.491Z",
                "light": 11
            },
            {
                "timestamp": "2023-12-29T14:58:55.543Z",
                "light": 11
            },
            {
                "timestamp": "2023-12-29T14:59:25.807Z",
                "light": 12
            },
            {
                "timestamp": "2023-12-29T14:59:56.809Z",
                "light": 11
            },
            {
                "timestamp": "2023-12-29T15:00:25.501Z",
                "light": 11
            },
            {
                "timestamp": "2023-12-29T15:00:55.672Z",
                "light": 11
            },
            {
                "timestamp": "2023-12-29T15:01:25.789Z",
                "light": 12
            },
            {
                "timestamp": "2023-12-29T15:01:55.694Z",
                "light": 12
            },
            {
                "timestamp": "2023-12-29T15:02:25.495Z",
                "light": 10
            },
            {
                "timestamp": "2023-12-29T15:02:55.724Z",
                "light": 12
            },
            {
                "timestamp": "2023-12-29T15:03:25.545Z",
                "light": 11
            },
            {
                "timestamp": "2023-12-29T15:03:55.646Z",
                "light": 10
            },
            {
                "timestamp": "2023-12-29T15:04:25.952Z",
                "light": 11
            },
            {
                "timestamp": "2023-12-29T15:04:55.625Z",
                "light": 12
            },
            {
                "timestamp": "2023-12-29T15:05:25.581Z",
                "light": 10
            },
            {
                "timestamp": "2023-12-29T15:05:55.727Z",
                "light": 12
            },
            {
                "timestamp": "2023-12-29T15:06:25.548Z",
                "light": 10
            },
            {
                "timestamp": "2023-12-29T15:06:55.549Z",
                "light": 12
            },
            {
                "timestamp": "2023-12-29T15:07:25.847Z",
                "light": 12
            },
            {
                "timestamp": "2023-12-29T15:07:55.555Z",
                "light": 12
            },
            {
                "timestamp": "2023-12-29T15:08:25.596Z",
                "light": 10
            },
            {
                "timestamp": "2023-12-29T15:08:55.795Z",
                "light": 12
            }
        ],
        "nodeID": 1,
        "__v": 82
    },
    {
        "_id": "657afa0f10991fd362615686",
        "sensorId": "soil_moisture",
        "nodeID": 1,
        "value": [
            {
                "timestamp": "2023-12-29T14:37:17.080Z",
                "soil_moisture": 49
            },
            {
                "timestamp": "2023-12-29T14:39:57.127Z",
                "soil_moisture": 49
            },
            {
                "timestamp": "2023-12-29T14:40:55.358Z",
                "soil_moisture": 49
            },
            {
                "timestamp": "2023-12-29T14:41:25.420Z",
                "soil_moisture": 51
            },
            {
                "timestamp": "2023-12-29T14:41:55.187Z",
                "soil_moisture": 51
            },
            {
                "timestamp": "2023-12-29T14:42:25.196Z",
                "soil_moisture": 51
            },
            {
                "timestamp": "2023-12-29T14:42:55.472Z",
                "soil_moisture": 49
            },
            {
                "timestamp": "2023-12-29T14:43:25.371Z",
                "soil_moisture": 52
            },
            {
                "timestamp": "2023-12-29T14:43:55.410Z",
                "soil_moisture": 51
            },
            {
                "timestamp": "2023-12-29T14:44:25.427Z",
                "soil_moisture": 50
            },
            {
                "timestamp": "2023-12-29T14:44:55.224Z",
                "soil_moisture": 52
            },
            {
                "timestamp": "2023-12-29T14:45:25.575Z",
                "soil_moisture": 51
            },
            {
                "timestamp": "2023-12-29T14:45:55.249Z",
                "soil_moisture": 50
            },
            {
                "timestamp": "2023-12-29T14:46:25.425Z",
                "soil_moisture": 50
            },
            {
                "timestamp": "2023-12-29T14:46:55.591Z",
                "soil_moisture": 51
            },
            {
                "timestamp": "2023-12-29T14:47:25.291Z",
                "soil_moisture": 52
            },
            {
                "timestamp": "2023-12-29T14:47:46.545Z",
                "soil_moisture": 51
            },
            {
                "timestamp": "2023-12-29T14:47:55.294Z",
                "soil_moisture": 51
            },
            {
                "timestamp": "2023-12-29T14:48:25.395Z",
                "soil_moisture": 52
            },
            {
                "timestamp": "2023-12-29T14:48:55.549Z",
                "soil_moisture": 52
            },
            {
                "timestamp": "2023-12-29T14:49:25.354Z",
                "soil_moisture": 51
            },
            {
                "timestamp": "2023-12-29T14:49:55.416Z",
                "soil_moisture": 52
            },
            {
                "timestamp": "2023-12-29T14:50:25.534Z",
                "soil_moisture": 52
            },
            {
                "timestamp": "2023-12-29T14:50:55.363Z",
                "soil_moisture": 52
            },
            {
                "timestamp": "2023-12-29T14:51:25.358Z",
                "soil_moisture": 52
            },
            {
                "timestamp": "2023-12-29T14:51:55.963Z",
                "soil_moisture": 50
            },
            {
                "timestamp": "2023-12-29T14:52:25.435Z",
                "soil_moisture": 50
            },
            {
                "timestamp": "2023-12-29T14:52:55.561Z",
                "soil_moisture": 49
            },
            {
                "timestamp": "2023-12-29T14:53:25.377Z",
                "soil_moisture": 49
            },
            {
                "timestamp": "2023-12-29T14:53:55.666Z",
                "soil_moisture": 50
            },
            {
                "timestamp": "2023-12-29T14:54:25.459Z",
                "soil_moisture": 49
            },
            {
                "timestamp": "2023-12-29T14:54:55.679Z",
                "soil_moisture": 50
            },
            {
                "timestamp": "2023-12-29T14:55:25.706Z",
                "soil_moisture": 49
            },
            {
                "timestamp": "2023-12-29T14:55:55.481Z",
                "soil_moisture": 49
            },
            {
                "timestamp": "2023-12-29T14:56:25.617Z",
                "soil_moisture": 52
            },
            {
                "timestamp": "2023-12-29T14:56:55.511Z",
                "soil_moisture": 49
            },
            {
                "timestamp": "2023-12-29T14:57:25.556Z",
                "soil_moisture": 50
            },
            {
                "timestamp": "2023-12-29T14:57:55.554Z",
                "soil_moisture": 51
            },
            {
                "timestamp": "2023-12-29T14:58:25.668Z",
                "soil_moisture": 50
            },
            {
                "timestamp": "2023-12-29T14:58:55.490Z",
                "soil_moisture": 52
            },
            {
                "timestamp": "2023-12-29T14:59:25.545Z",
                "soil_moisture": 52
            },
            {
                "timestamp": "2023-12-29T14:59:55.514Z",
                "soil_moisture": 50
            },
            {
                "timestamp": "2023-12-29T15:00:25.507Z",
                "soil_moisture": 52
            },
            {
                "timestamp": "2023-12-29T15:00:55.509Z",
                "soil_moisture": 52
            },
            {
                "timestamp": "2023-12-29T15:01:25.716Z",
                "soil_moisture": 50
            },
            {
                "timestamp": "2023-12-29T15:01:55.496Z",
                "soil_moisture": 50
            },
            {
                "timestamp": "2023-12-29T15:02:25.517Z",
                "soil_moisture": 50
            },
            {
                "timestamp": "2023-12-29T15:02:55.524Z",
                "soil_moisture": 51
            },
            {
                "timestamp": "2023-12-29T15:03:25.528Z",
                "soil_moisture": 49
            },
            {
                "timestamp": "2023-12-29T15:03:55.594Z",
                "soil_moisture": 51
            },
            {
                "timestamp": "2023-12-29T15:04:25.751Z",
                "soil_moisture": 50
            },
            {
                "timestamp": "2023-12-29T15:04:55.734Z",
                "soil_moisture": 49
            },
            {
                "timestamp": "2023-12-29T15:05:25.605Z",
                "soil_moisture": 49
            },
            {
                "timestamp": "2023-12-29T15:05:55.558Z",
                "soil_moisture": 52
            },
            {
                "timestamp": "2023-12-29T15:06:25.575Z",
                "soil_moisture": 52
            },
            {
                "timestamp": "2023-12-29T15:06:55.541Z",
                "soil_moisture": 51
            },
            {
                "timestamp": "2023-12-29T15:07:25.653Z",
                "soil_moisture": 52
            },
            {
                "timestamp": "2023-12-29T15:07:55.670Z",
                "soil_moisture": 49
            },
            {
                "timestamp": "2023-12-29T15:08:25.825Z",
                "soil_moisture": 52
            },
            {
                "timestamp": "2023-12-29T15:08:55.617Z",
                "soil_moisture": 49
            }
        ],
        "__v": 60
    },
    {
        "_id": "657b034310991fd362615777",
        "sensorId": "dht20",
        "nodeID": 1,
        "value": [
            {
                "temperature": 30,
                "humidity": 71,
                "timestamp": "2023-12-29T14:28:54.265Z"
            },
            {
                "temperature": 30,
                "humidity": 71,
                "timestamp": "2023-12-29T14:29:24.141Z"
            },
            {
                "temperature": 30,
                "humidity": 71,
                "timestamp": "2023-12-29T14:29:54.136Z"
            },
            {
                "temperature": 30,
                "humidity": 71,
                "timestamp": "2023-12-29T14:30:24.345Z"
            },
            {
                "temperature": 30,
                "humidity": 71,
                "timestamp": "2023-12-29T14:30:54.229Z"
            },
            {
                "temperature": 30,
                "humidity": 71,
                "timestamp": "2023-12-29T14:31:24.441Z"
            },
            {
                "temperature": 30,
                "humidity": 71,
                "timestamp": "2023-12-29T14:31:54.137Z"
            },
            {
                "temperature": 30,
                "humidity": 71,
                "timestamp": "2023-12-29T14:32:24.213Z"
            },
            {
                "temperature": 30,
                "humidity": 71,
                "timestamp": "2023-12-29T14:32:54.176Z"
            },
            {
                "temperature": 30,
                "humidity": 71,
                "timestamp": "2023-12-29T14:33:24.349Z"
            },
            {
                "temperature": 30,
                "humidity": 71,
                "timestamp": "2023-12-29T14:33:54.568Z"
            },
            {
                "temperature": 30,
                "humidity": 71,
                "timestamp": "2023-12-29T14:34:24.423Z"
            },
            {
                "temperature": 30,
                "humidity": 71,
                "timestamp": "2023-12-29T14:34:54.416Z"
            },
            {
                "temperature": 30,
                "humidity": 71,
                "timestamp": "2023-12-29T14:35:24.171Z"
            },
            {
                "temperature": 30,
                "humidity": 71,
                "timestamp": "2023-12-29T14:35:54.278Z"
            },
            {
                "temperature": 30,
                "humidity": 71,
                "timestamp": "2023-12-29T14:36:24.188Z"
            },
            {
                "temperature": 30,
                "humidity": 71,
                "timestamp": "2023-12-29T14:36:54.638Z"
            },
            {
                "temperature": 31,
                "humidity": 70,
                "timestamp": "2023-12-29T14:37:20.399Z"
            },
            {
                "temperature": 30,
                "humidity": 71,
                "timestamp": "2023-12-29T14:37:24.269Z"
            },
            {
                "temperature": 30,
                "humidity": 71,
                "timestamp": "2023-12-29T14:37:54.295Z"
            },
            {
                "temperature": 30,
                "humidity": 71,
                "timestamp": "2023-12-29T14:38:24.239Z"
            },
            {
                "temperature": 30,
                "humidity": 71,
                "timestamp": "2023-12-29T14:38:54.451Z"
            },
            {
                "temperature": 30,
                "humidity": 69,
                "timestamp": "2023-12-29T14:39:56.920Z"
            },
            {
                "temperature": 32,
                "humidity": 71,
                "timestamp": "2023-12-29T14:40:55.329Z"
            },
            {
                "temperature": 32,
                "humidity": 71,
                "timestamp": "2023-12-29T14:41:25.076Z"
            },
            {
                "temperature": 32,
                "humidity": 69,
                "timestamp": "2023-12-29T14:41:55.262Z"
            },
            {
                "temperature": 32,
                "humidity": 70,
                "timestamp": "2023-12-29T14:42:25.460Z"
            },
            {
                "temperature": 30,
                "humidity": 70,
                "timestamp": "2023-12-29T14:42:55.292Z"
            },
            {
                "temperature": 31,
                "humidity": 69,
                "timestamp": "2023-12-29T14:43:25.164Z"
            },
            {
                "temperature": 30,
                "humidity": 69,
                "timestamp": "2023-12-29T14:43:55.304Z"
            },
            {
                "temperature": 31,
                "humidity": 70,
                "timestamp": "2023-12-29T14:44:25.314Z"
            },
            {
                "temperature": 31,
                "humidity": 71,
                "timestamp": "2023-12-29T14:44:55.310Z"
            },
            {
                "temperature": 30,
                "humidity": 71,
                "timestamp": "2023-12-29T14:45:25.440Z"
            },
            {
                "temperature": 32,
                "humidity": 70,
                "timestamp": "2023-12-29T14:45:55.180Z"
            },
            {
                "temperature": 31,
                "humidity": 69,
                "timestamp": "2023-12-29T14:46:25.137Z"
            },
            {
                "temperature": 31,
                "humidity": 69,
                "timestamp": "2023-12-29T14:46:55.532Z"
            },
            {
                "temperature": 31,
                "humidity": 71,
                "timestamp": "2023-12-29T14:47:25.186Z"
            },
            {
                "temperature": 32,
                "humidity": 70,
                "timestamp": "2023-12-29T14:47:46.594Z"
            },
            {
                "temperature": 31,
                "humidity": 69,
                "timestamp": "2023-12-29T14:47:55.447Z"
            },
            {
                "temperature": 30,
                "humidity": 71,
                "timestamp": "2023-12-29T14:48:25.469Z"
            },
            {
                "temperature": 32,
                "humidity": 71,
                "timestamp": "2023-12-29T14:48:55.361Z"
            },
            {
                "temperature": 30,
                "humidity": 71,
                "timestamp": "2023-12-29T14:49:25.242Z"
            },
            {
                "temperature": 32,
                "humidity": 69,
                "timestamp": "2023-12-29T14:49:55.281Z"
            },
            {
                "temperature": 32,
                "humidity": 71,
                "timestamp": "2023-12-29T14:50:25.251Z"
            },
            {
                "temperature": 31,
                "humidity": 71,
                "timestamp": "2023-12-29T14:50:55.262Z"
            },
            {
                "temperature": 30,
                "humidity": 70,
                "timestamp": "2023-12-29T14:51:25.314Z"
            },
            {
                "temperature": 32,
                "humidity": 71,
                "timestamp": "2023-12-29T14:51:56.005Z"
            },
            {
                "temperature": 32,
                "humidity": 69,
                "timestamp": "2023-12-29T14:52:25.465Z"
            },
            {
                "temperature": 32,
                "humidity": 71,
                "timestamp": "2023-12-29T14:52:55.285Z"
            },
            {
                "temperature": 32,
                "humidity": 69,
                "timestamp": "2023-12-29T14:53:25.323Z"
            },
            {
                "temperature": 31,
                "humidity": 71,
                "timestamp": "2023-12-29T14:53:55.617Z"
            },
            {
                "temperature": 30,
                "humidity": 71,
                "timestamp": "2023-12-29T14:54:25.551Z"
            },
            {
                "temperature": 32,
                "humidity": 69,
                "timestamp": "2023-12-29T14:54:55.392Z"
            },
            {
                "temperature": 30,
                "humidity": 71,
                "timestamp": "2023-12-29T14:55:25.385Z"
            },
            {
                "temperature": 32,
                "humidity": 69,
                "timestamp": "2023-12-29T14:55:55.380Z"
            },
            {
                "temperature": 30,
                "humidity": 70,
                "timestamp": "2023-12-29T14:56:25.585Z"
            },
            {
                "temperature": 30,
                "humidity": 70,
                "timestamp": "2023-12-29T14:56:55.378Z"
            },
            {
                "temperature": 30,
                "humidity": 69,
                "timestamp": "2023-12-29T14:57:25.602Z"
            },
            {
                "temperature": 32,
                "humidity": 71,
                "timestamp": "2023-12-29T14:57:55.386Z"
            },
            {
                "temperature": 32,
                "humidity": 70,
                "timestamp": "2023-12-29T14:58:25.481Z"
            },
            {
                "temperature": 32,
                "humidity": 69,
                "timestamp": "2023-12-29T14:58:55.568Z"
            },
            {
                "temperature": 32,
                "humidity": 69,
                "timestamp": "2023-12-29T14:59:25.486Z"
            },
            {
                "temperature": 31,
                "humidity": 71,
                "timestamp": "2023-12-29T14:59:55.398Z"
            },
            {
                "temperature": 32,
                "humidity": 69,
                "timestamp": "2023-12-29T15:00:25.401Z"
            },
            {
                "temperature": 31,
                "humidity": 71,
                "timestamp": "2023-12-29T15:00:55.617Z"
            },
            {
                "temperature": 32,
                "humidity": 70,
                "timestamp": "2023-12-29T15:01:25.493Z"
            },
            {
                "temperature": 31,
                "humidity": 71,
                "timestamp": "2023-12-29T15:01:55.625Z"
            },
            {
                "temperature": 31,
                "humidity": 71,
                "timestamp": "2023-12-29T15:02:25.722Z"
            },
            {
                "temperature": 30,
                "humidity": 69,
                "timestamp": "2023-12-29T15:02:55.446Z"
            },
            {
                "temperature": 32,
                "humidity": 71,
                "timestamp": "2023-12-29T15:03:25.454Z"
            },
            {
                "temperature": 30,
                "humidity": 71,
                "timestamp": "2023-12-29T15:03:55.511Z"
            },
            {
                "temperature": 32,
                "humidity": 69,
                "timestamp": "2023-12-29T15:04:25.944Z"
            },
            {
                "temperature": 32,
                "humidity": 69,
                "timestamp": "2023-12-29T15:04:55.486Z"
            },
            {
                "temperature": 30,
                "humidity": 71,
                "timestamp": "2023-12-29T15:05:25.736Z"
            },
            {
                "temperature": 31,
                "humidity": 71,
                "timestamp": "2023-12-29T15:05:55.690Z"
            },
            {
                "temperature": 30,
                "humidity": 70,
                "timestamp": "2023-12-29T15:06:25.467Z"
            },
            {
                "temperature": 32,
                "humidity": 70,
                "timestamp": "2023-12-29T15:06:55.740Z"
            },
            {
                "temperature": 30,
                "humidity": 69,
                "timestamp": "2023-12-29T15:07:25.620Z"
            },
            {
                "temperature": 31,
                "humidity": 69,
                "timestamp": "2023-12-29T15:07:55.594Z"
            },
            {
                "temperature": 31,
                "humidity": 69,
                "timestamp": "2023-12-29T15:08:25.545Z"
            },
            {
                "temperature": 31,
                "humidity": 70,
                "timestamp": "2023-12-29T15:08:55.560Z"
            }
        ],
        "__v": 81
    }
]